{
	"annotations": {
	  "list": [
		{
		  "builtIn": 1,
		  "datasource": {
			"type": "datasource",
			"uid": "grafana"
		  },
		  "enable": true,
		  "hide": true,
		  "iconColor": "rgba(0, 211, 255, 1)",
		  "name": "Annotations & Alerts",
		  "target": {
			"limit": 100,
			"matchAny": false,
			"tags": [],
			"type": "dashboard"
		  },
		  "type": "dashboard"
		}
	  ]
	},
	"description": "Loki v2+ showcase using JSON NGINX access logs.",
	"editable": true,
	"fiscalYearStartMonth": 0,
	"gnetId": 12559,
	"graphTooltip": 0,
	"id": 1,
	"iteration": 1661492302649,
	"links": [],
	"liveNow": false,
	"panels": [
	  {
		"collapsed": false,
		"datasource": {
		  "uid": "$datasource"
		},
		"gridPos": {
		  "h": 1,
		  "w": 24,
		  "x": 0,
		  "y": 0
		},
		"id": 24,
		"panels": [],
		"targets": [
		  {
			"datasource": {
			  "uid": "$datasource"
			},
			"refId": "A"
		  }
		],
		"title": "KPI's",
		"type": "row"
	  },
	  {
		"datasource": {
		  "uid": "$datasource"
		},
		"description": "",
		"fieldConfig": {
		  "defaults": {
			"color": {
			  "mode": "thresholds"
			},
			"mappings": [],
			"thresholds": {
			  "mode": "absolute",
			  "steps": [
				{
				  "color": "purple",
				  "value": null
				}
			  ]
			},
			"unit": "short"
		  },
		  "overrides": []
		},
		"gridPos": {
		  "h": 4,
		  "w": 5,
		  "x": 0,
		  "y": 1
		},
		"hideTimeOverride": false,
		"id": 4,
		"maxDataPoints": 300,
		"options": {
		  "colorMode": "background",
		  "graphMode": "area",
		  "justifyMode": "center",
		  "orientation": "auto",
		  "reduceOptions": {
			"calcs": [
			  "sum"
			],
			"fields": "",
			"values": false
		  },
		  "text": {},
		  "textMode": "value"
		},
		"pluginVersion": "9.0.2",
		"targets": [
		  {
			"datasource": {
			  "uid": "$datasource"
			},
			"expr": "sum by(host) (count_over_time({$label_name=~\"$label_value\", job=~\"$job\", instance=~\"$instance\"}[$__interval]))  ",
			"legendFormat": "",
			"refId": "A"
		  }
		],
		"timeFrom": "24h",
		"title": "Total requests  ",
		"transformations": [],
		"type": "stat"
	  },
	  {
		"datasource": {
		  "uid": "$datasource"
		},
		"description": "",
		"fieldConfig": {
		  "defaults": {
			"color": {
			  "mode": "thresholds"
			},
			"mappings": [],
			"thresholds": {
			  "mode": "percentage",
			  "steps": [
				{
				  "color": "rgba(110, 157, 228, 0.76)",
				  "value": null
				},
				{
				  "color": "rgba(73, 124, 202, 1)",
				  "value": 20
				}
			  ]
			},
			"unit": "short"
		  },
		  "overrides": []
		},
		"gridPos": {
		  "h": 8,
		  "w": 7,
		  "x": 5,
		  "y": 1
		},
		"id": 5,
		"maxDataPoints": 20,
		"options": {
		  "colorMode": "background",
		  "graphMode": "area",
		  "justifyMode": "auto",
		  "orientation": "auto",
		  "reduceOptions": {
			"calcs": [
			  "sum"
			],
			"fields": "",
			"values": false
		  },
		  "text": {},
		  "textMode": "auto"
		},
		"pluginVersion": "9.0.2",
		"targets": [
		  {
			"datasource": {
			  "uid": "$datasource"
			},
			"expr": "sum by (status) (count_over_time({$label_name=~\"$label_value\", job=~\"$job\", instance=~\"$instance\"} | json |  __error__=\"\" [$__interval]))",
			"instant": false,
			"legendFormat": "HTTP Status: {{status}}",
			"range": true,
			"refId": "A"
		  }
		],
		"title": "Requests per status code",
		"transformations": [],
		"type": "stat"
	  },
	  {
		"datasource": {
		  "uid": "$datasource"
		},
		"description": "",
		"fieldConfig": {
		  "defaults": {
			"color": {
			  "mode": "thresholds"
			},
			"decimals": 0,
			"mappings": [],
			"thresholds": {
			  "mode": "absolute",
			  "steps": [
				{
				  "color": "semi-dark-orange",
				  "value": null
				}
			  ]
			},
			"unit": "decbytes"
		  },
		  "overrides": []
		},
		"gridPos": {
		  "h": 4,
		  "w": 3,
		  "x": 12,
		  "y": 1
		},
		"id": 30,
		"maxDataPoints": 1,
		"options": {
		  "colorMode": "background",
		  "graphMode": "none",
		  "justifyMode": "auto",
		  "orientation": "auto",
		  "reduceOptions": {
			"calcs": [
			  "sum"
			],
			"fields": "",
			"values": false
		  },
		  "text": {},
		  "textMode": "auto"
		},
		"pluginVersion": "9.0.2",
		"targets": [
		  {
			"datasource": {
			  "uid": "$datasource"
			},
			"expr": "bytes_over_time({$label_name=~\"$label_value\", job=~\"$job\", instance=~\"$instance\"}[$__interval])",
			"instant": true,
			"legendFormat": "$label_value",
			"range": false,
			"refId": "A"
		  }
		],
		"title": "NGINX logs in bytes",
		"type": "stat"
	  },
	  {
		"datasource": {
		  "uid": "$datasource"
		},
		"description": "",
		"fieldConfig": {
		  "defaults": {
			"color": {
			  "mode": "thresholds"
			},
			"mappings": [],
			"thresholds": {
			  "mode": "absolute",
			  "steps": [
				{
				  "color": "purple",
				  "value": null
				}
			  ]
			},
			"unit": "decbytes"
		  },
		  "overrides": []
		},
		"gridPos": {
		  "h": 4,
		  "w": 3,
		  "x": 15,
		  "y": 1
		},
		"id": 8,
		"maxDataPoints": 1,
		"options": {
		  "colorMode": "background",
		  "graphMode": "none",
		  "justifyMode": "center",
		  "orientation": "auto",
		  "reduceOptions": {
			"calcs": [
			  "sum"
			],
			"fields": "",
			"values": false
		  },
		  "text": {},
		  "textMode": "value"
		},
		"pluginVersion": "9.0.2",
		"targets": [
		  {
			"datasource": {
			  "uid": "$datasource"
			},
			"expr": "sum by (host) (sum_over_time({$label_name=~\"$label_value\", job=~\"$job\", instance=~\"$instance\"} | json | unwrap body_bytes_sent |  __error__=\"\" [$__interval]))",
			"instant": true,
			"legendFormat": "Bytes sent",
			"range": false,
			"refId": "A"
		  }
		],
		"title": "Total Bytes Sent",
		"transformations": [],
		"type": "stat"
	  },
	  {
		"datasource": {
		  "type": "prometheus",
		  "uid": "ToAQsMQnz"
		},
		"description": "",
		"gridPos": {
		  "h": 4,
		  "w": 6,
		  "x": 18,
		  "y": 1
		},
		"id": 34,
		"options": {
		  "content": "📊 Dashboard created by Ward Bekker (hope you like it!)\n\n🐦 Follow me on [Twitter](https://twitter.com/wardbekker) & [LinkedIn](https://www.linkedin.com/in/wardbekker/) for  Grafana Loki updates \n\n🎥 Check out my [Grafana Loki video's](https://www.youtube.com/playlist?list=PLDGkOdUX1UjqEzcxQrbROMy8DN7MZv_h4) on Youtube",
		  "mode": "markdown"
		},
		"pluginVersion": "9.0.2",
		"targets": [
		  {
			"datasource": {
			  "type": "prometheus",
			  "uid": "ToAQsMQnz"
			},
			"refId": "A"
		  }
		],
		"transparent": true,
		"type": "text"
	  },
	  {
		"datasource": {
		  "uid": "$datasource"
		},
		"description": "",
		"fieldConfig": {
		  "defaults": {
			"color": {
			  "mode": "thresholds"
			},
			"mappings": [],
			"thresholds": {
			  "mode": "absolute",
			  "steps": [
				{
				  "color": "purple",
				  "value": null
				}
			  ]
			}
		  },
		  "overrides": []
		},
		"gridPos": {
		  "h": 4,
		  "w": 5,
		  "x": 0,
		  "y": 5
		},
		"id": 22,
		"interval": "5m",
		"options": {
		  "colorMode": "background",
		  "graphMode": "none",
		  "justifyMode": "auto",
		  "orientation": "auto",
		  "reduceOptions": {
			"calcs": [
			  "mean"
			],
			"fields": "",
			"values": false
		  },
		  "text": {},
		  "textMode": "value"
		},
		"pluginVersion": "9.0.2",
		"targets": [
		  {
			"datasource": {
			  "uid": "$datasource"
			},
			"expr": "count(sum by (remote_addr) (count_over_time({$label_name=~\"$label_value\", job=~\"$job\", instance=~\"$instance\"} | json |  __error__=\"\" [$__interval])))",
			"instant": true,
			"legendFormat": "",
			"range": false,
			"refId": "A"
		  }
		],
		"timeFrom": "5m",
		"title": "Realtime visitors ",
		"transformations": [],
		"type": "stat"
	  },
	  {
		"datasource": {
		  "uid": "$datasource"
		},
		"description": "",
		"fieldConfig": {
		  "defaults": {
			"color": {
			  "mode": "thresholds"
			},
			"decimals": 0,
			"mappings": [],
			"thresholds": {
			  "mode": "absolute",
			  "steps": [
				{
				  "color": "semi-dark-orange",
				  "value": null
				}
			  ]
			},
			"unit": "short"
		  },
		  "overrides": []
		},
		"gridPos": {
		  "h": 4,
		  "w": 3,
		  "x": 12,
		  "y": 5
		},
		"id": 31,
		"maxDataPoints": 1,
		"options": {
		  "colorMode": "background",
		  "graphMode": "none",
		  "justifyMode": "auto",
		  "orientation": "auto",
		  "reduceOptions": {
			"calcs": [
			  "sum"
			],
			"fields": "",
			"values": false
		  },
		  "text": {},
		  "textMode": "auto"
		},
		"pluginVersion": "9.0.2",
		"targets": [
		  {
			"datasource": {
			  "uid": "$datasource"
			},
			"expr": "count_over_time({$label_name=~\"$label_value\", job=~\"$job\", instance=~\"$instance\"}[$__interval])",
			"instant": true,
			"range": false,
			"refId": "A"
		  }
		],
		"title": "# NGINX log lines",
		"type": "stat"
	  },
	  {
		"datasource": {
		  "uid": "$datasource"
		},
		"description": "",
		"fieldConfig": {
		  "defaults": {
			"color": {
			  "mode": "thresholds"
			},
			"decimals": 1,
			"mappings": [],
			"max": 100,
			"min": 0,
			"thresholds": {
			  "mode": "absolute",
			  "steps": [
				{
				  "color": "purple",
				  "value": null
				},
				{
				  "color": "red",
				  "value": 80
				}
			  ]
			},
			"unit": "percent"
		  },
		  "overrides": []
		},
		"gridPos": {
		  "h": 4,
		  "w": 3,
		  "x": 15,
		  "y": 5
		},
		"hideTimeOverride": true,
		"id": 19,
		"links": [],
		"maxDataPoints": 1,
		"options": {
		  "colorMode": "background",
		  "graphMode": "none",
		  "justifyMode": "center",
		  "orientation": "auto",
		  "reduceOptions": {
			"calcs": [
			  "max"
			],
			"fields": "",
			"values": false
		  },
		  "text": {},
		  "textMode": "value"
		},
		"pluginVersion": "9.0.2",
		"targets": [
		  {
			"datasource": {
			  "uid": "$datasource"
			},
			"expr": "sum(count_over_time({$label_name=~\"$label_value\", job=~\"$job\", instance=~\"$instance\"} | json | status >= 500 |__error__=\"\"[$__interval])) / (sum(count_over_time({$label_name=~\"$label_value\", job=~\"$job\", instance=~\"$instance\"} | json | __error__=\"\"[$__interval]))/ 100)",
			"instant": false,
			"legendFormat": "",
			"range": true,
			"refId": "A"
		  }
		],
		"timeFrom": "1h",
		"title": "% of 5xx requests ",
		"type": "stat"
	  },
	  {
		"datasource": {
		  "uid": "$datasource"
		},
		"description": "",
		"fieldConfig": {
		  "defaults": {
			"color": {
			  "mode": "thresholds"
			},
			"mappings": [],
			"max": 100,
			"min": 0,
			"thresholds": {
			  "mode": "absolute",
			  "steps": [
				{
				  "color": "purple",
				  "value": null
				}
			  ]
			},
			"unit": "percent"
		  },
		  "overrides": []
		},
		"gridPos": {
		  "h": 4,
		  "w": 6,
		  "x": 18,
		  "y": 5
		},
		"hideTimeOverride": true,
		"id": 18,
		"interval": "10m",
		"links": [],
		"maxDataPoints": 1,
		"options": {
		  "colorMode": "background",
		  "graphMode": "none",
		  "justifyMode": "auto",
		  "orientation": "auto",
		  "reduceOptions": {
			"calcs": [
			  "last"
			],
			"fields": "",
			"values": false
		  },
		  "text": {},
		  "textMode": "value"
		},
		"pluginVersion": "9.0.2",
		"targets": [
		  {
			"datasource": {
			  "uid": "$datasource"
			},
			"expr": "sum(count_over_time(({$label_name=~\"$label_value\", job=~\"$job\", instance=~\"$instance\"} |= \"Googlebot\")[$__interval])) / (sum(count_over_time(({$label_name=~\"$label_value\", job=~\"$job\", instance=~\"$instance\"} != \"Googlebot\")[$__interval])) / 100)",
			"instant": true,
			"legendFormat": "",
			"range": false,
			"refId": "A"
		  }
		],
		"timeFrom": "1h",
		"title": "% of requests by Googlebot",
		"type": "stat"
	  },
	  {
		"datasource": {
		  "uid": "$datasource"
		},
		"description": "",
		"fieldConfig": {
		  "defaults": {
			"color": {
			  "mode": "thresholds"
			},
			"custom": {
			  "hideFrom": {
				"legend": false,
				"tooltip": false,
				"viz": false
			  }
			},
			"mappings": [],
			"thresholds": {
			  "mode": "absolute",
			  "steps": [
				{
				  "color": "#96D98D",
				  "value": null
				},
				{
				  "color": "#73BF69",
				  "value": 5
				},
				{
				  "color": "#56A64B",
				  "value": 10
				}
			  ]
			}
		  },
		  "overrides": []
		},
		"gridPos": {
		  "h": 11,
		  "w": 12,
		  "x": 0,
		  "y": 9
		},
		"id": 14,
		"maxDataPoints": 1,
		"options": {
		  "basemap": {
			"config": {
			  "server": "streets"
			},
			"name": "Layer 0",
			"type": "esri-xyz"
		  },
		  "controls": {
			"mouseWheelZoom": false,
			"showAttribution": true,
			"showDebug": false,
			"showScale": false,
			"showZoom": true
		  },
		  "layers": [
			{
			  "config": {
				"color": {
				  "fixed": "semi-dark-blue"
				},
				"fillOpacity": 0.3,
				"shape": "circle",
				"showLegend": true,
				"size": {
				  "field": "Value",
				  "fixed": 5,
				  "max": 50,
				  "min": 10
				}
			  },
			  "location": {
				"lookup": "Metric",
				"mode": "lookup"
			  },
			  "name": "Layer 1",
			  "type": "markers"
			}
		  ],
		  "tooltip": {
			"mode": "details"
		  },
		  "view": {
			"id": "zero",
			"lat": 0,
			"lon": 0,
			"zoom": 2
		  }
		},
		"pluginVersion": "9.0.2",
		"targets": [
		  {
			"datasource": {
			  "uid": "$datasource"
			},
			"expr": "sum by (geoip_country_code) (count_over_time({$label_name=~\"$label_value\", job=~\"$job\", instance=~\"$instance\"} | json | geoip_country_code != \"\" | __error__=\"\" [$__interval]))",
			"instant": false,
			"legendFormat": "{{geoip_country_code}}",
			"range": true,
			"refId": "A"
		  }
		],
		"title": "Requests per Country",
		"transformations": [
		  {
			"id": "seriesToRows",
			"options": {}
		  }
		],
		"type": "geomap"
	  },
	  {
		"datasource": {
		  "uid": "$datasource"
		},
		"description": "",
		"fieldConfig": {
		  "defaults": {
			"color": {
			  "mode": "continuous-BlPu"
			},
			"custom": {
			  "align": "center",
			  "displayMode": "auto",
			  "filterable": false,
			  "inspect": false
			},
			"mappings": [
			  {
				"options": {
				  "CN": {
					"color": "transparent",
					"index": 4,
					"text": "🇨🇳CN"
				  },
				  "DE": {
					"color": "transparent",
					"index": 2,
					"text": "🇩🇪DE"
				  },
				  "FR": {
					"color": "transparent",
					"index": 3,
					"text": "🇫🇷FR"
				  },
				  "GB": {
					"color": "transparent",
					"index": 7,
					"text": "🇬🇧GB"
				  },
				  "IN": {
					"color": "transparent",
					"index": 5,
					"text": "🇮🇳IN"
				  },
				  "IT": {
					"color": "transparent",
					"index": 6,
					"text": "🇮🇹IT"
				  },
				  "NL": {
					"color": "transparent",
					"index": 1,
					"text": "🇳🇱NL"
				  },
				  "US": {
					"color": "transparent",
					"index": 0,
					"text": "🇺🇸 US"
				  }
				},
				"type": "value"
			  }
			],
			"thresholds": {
			  "mode": "absolute",
			  "steps": [
				{
				  "color": "transparent",
				  "value": null
				}
			  ]
			}
		  },
		  "overrides": []
		},
		"gridPos": {
		  "h": 11,
		  "w": 3,
		  "x": 12,
		  "y": 9
		},
		"hideTimeOverride": true,
		"id": 32,
		"maxDataPoints": 1,
		"options": {
		  "footer": {
			"fields": "",
			"reducer": [
			  "sum"
			],
			"show": false
		  },
		  "showHeader": false,
		  "sortBy": [
			{
			  "desc": true,
			  "displayName": "Requests"
			}
		  ]
		},
		"pluginVersion": "9.0.2",
		"targets": [
		  {
			"datasource": {
			  "uid": "$datasource"
			},
			"expr": "topk(10, sum by (geoip_country_code) (count_over_time({$label_name=~\"$label_value\", job=~\"$job\", instance=~\"$instance\"} | json | geoip_country_code != \"\" and  __error__=\"\" [$__interval])))",
			"instant": true,
			"legendFormat": "{{remote_addr}}",
			"range": false,
			"refId": "A"
		  }
		],
		"timeFrom": "15m",
		"title": "Top Countries",
		"transformations": [
		  {
			"id": "organize",
			"options": {
			  "excludeByName": {
				"Field": false,
				"Time": true,
				"Value #A": true
			  },
			  "indexByName": {
				"Time": 0,
				"Value #A": 3,
				"geoip_country_code": 2,
				"remote_addr": 1
			  },
			  "renameByName": {
				"Field": "IP Address",
				"Total": "Requests",
				"Value #A": "Requests",
				"geoip_country_code": "Country",
				"remote_addr": "IP Address "
			  }
			}
		  }
		],
		"type": "table"
	  },
	  {
		"datasource": {
		  "uid": "$datasource"
		},
		"description": "",
		"gridPos": {
		  "h": 11,
		  "w": 9,
		  "x": 15,
		  "y": 9
		},
		"id": 11,
		"options": {
		  "dedupStrategy": "signature",
		  "enableLogDetails": false,
		  "prettifyLogMessage": false,
		  "showCommonLabels": false,
		  "showLabels": false,
		  "showTime": false,
		  "sortOrder": "Descending",
		  "wrapLogMessage": false
		},
		"targets": [
		  {
			"datasource": {
			  "uid": "$datasource"
			},
			"expr": "{$label_name=~\"$label_value\", job=~\"$job\", instance=~\"$instance\"} | json | line_format \"➡️ {{.request_method}} {{.request_uri}} with HTTP status: {{.status}} \"",
			"legendFormat": "",
			"refId": "A"
		  }
		],
		"title": "Recent requests",
		"type": "logs"
	  },
	  {
		"collapsed": false,
		"datasource": {
		  "uid": "$datasource"
		},
		"gridPos": {
		  "h": 1,
		  "w": 24,
		  "x": 0,
		  "y": 20
		},
		"id": 26,
		"panels": [],
		"targets": [
		  {
			"datasource": {
			  "uid": "$datasource"
			},
			"refId": "A"
		  }
		],
		"title": "Request statistics over time",
		"type": "row"
	  },
	  {
		"datasource": {
		  "uid": "$datasource"
		},
		"description": "",
		"fieldConfig": {
		  "defaults": {
			"color": {
			  "mode": "palette-classic"
			},
			"custom": {
			  "axisLabel": "",
			  "axisPlacement": "auto",
			  "barAlignment": 0,
			  "drawStyle": "line",
			  "fillOpacity": 100,
			  "gradientMode": "hue",
			  "hideFrom": {
				"graph": false,
				"legend": false,
				"tooltip": false,
				"viz": false
			  },
			  "lineInterpolation": "smooth",
			  "lineWidth": 1,
			  "pointSize": 5,
			  "scaleDistribution": {
				"log": 2,
				"type": "log"
			  },
			  "showPoints": "never",
			  "spanNulls": false,
			  "stacking": {
				"group": "A",
				"mode": "none"
			  },
			  "thresholdsStyle": {
				"mode": "off"
			  }
			},
			"mappings": [],
			"thresholds": {
			  "mode": "absolute",
			  "steps": [
				{
				  "color": "green",
				  "value": null
				},
				{
				  "color": "#EAB839",
				  "value": 0.2
				},
				{
				  "color": "red",
				  "value": 0.3
				}
			  ]
			},
			"unit": "s"
		  },
		  "overrides": [
			{
			  "matcher": {
				"id": "byName",
				"options": "95th percentile"
			  },
			  "properties": [
				{
				  "id": "color",
				  "value": {
					"fixedColor": "blue",
					"mode": "fixed"
				  }
				}
			  ]
			},
			{
			  "matcher": {
				"id": "byName",
				"options": "max latency"
			  },
			  "properties": [
				{
				  "id": "color",
				  "value": {
					"fixedColor": "super-light-blue",
					"mode": "fixed"
				  }
				}
			  ]
			},
			{
			  "matcher": {
				"id": "byName",
				"options": "max latency"
			  },
			  "properties": [
				{
				  "id": "custom.fillOpacity",
				  "value": 30
				}
			  ]
			}
		  ]
		},
		"gridPos": {
		  "h": 9,
		  "w": 8,
		  "x": 0,
		  "y": 21
		},
		"id": 16,
		"maxDataPoints": 50,
		"options": {
		  "legend": {
			"calcs": [],
			"displayMode": "list",
			"placement": "bottom"
		  },
		  "tooltip": {
			"mode": "single",
			"sort": "none"
		  }
		},
		"pluginVersion": "8.0.0-beta3",
		"targets": [
		  {
			"datasource": {
			  "uid": "$datasource"
			},
			"expr": "quantile_over_time(0.95,{$label_name=~\"$label_value\", job=~\"$job\", instance=~\"$instance\"} | json | unwrap request_time |  __error__=\"\"  [$__interval]) by (host)",
			"legendFormat": "95th percentile",
			"refId": "C"
		  },
		  {
			"datasource": {
			  "uid": "$datasource"
			},
			"expr": "max by (host) (max_over_time({$label_name=~\"$label_value\", job=~\"$job\", instance=~\"$instance\"} | json | unwrap request_time |  __error__=\"\"  [$__interval]))",
			"legendFormat": "max latency",
			"refId": "D"
		  }
		],
		"title": "95th percentile of Request Time",
		"type": "timeseries"
	  },
	  {
		"datasource": {
		  "uid": "$datasource"
		},
		"description": "",
		"fieldConfig": {
		  "defaults": {
			"color": {
			  "mode": "palette-classic"
			},
			"custom": {
			  "axisLabel": "",
			  "axisPlacement": "auto",
			  "barAlignment": 0,
			  "drawStyle": "line",
			  "fillOpacity": 39,
			  "gradientMode": "hue",
			  "hideFrom": {
				"graph": false,
				"legend": false,
				"tooltip": false,
				"viz": false
			  },
			  "lineInterpolation": "smooth",
			  "lineWidth": 1,
			  "pointSize": 5,
			  "scaleDistribution": {
				"log": 2,
				"type": "log"
			  },
			  "showPoints": "never",
			  "spanNulls": true,
			  "stacking": {
				"group": "A",
				"mode": "none"
			  },
			  "thresholdsStyle": {
				"mode": "off"
			  }
			},
			"decimals": 0,
			"mappings": [],
			"thresholds": {
			  "mode": "absolute",
			  "steps": [
				{
				  "color": "green",
				  "value": null
				},
				{
				  "color": "red",
				  "value": 80
				}
			  ]
			},
			"unit": "short"
		  },
		  "overrides": [
			{
			  "matcher": {
				"id": "byName",
				"options": "HTTP Status 500"
			  },
			  "properties": [
				{
				  "id": "color",
				  "value": {
					"fixedColor": "dark-orange",
					"mode": "fixed"
				  }
				}
			  ]
			},
			{
			  "matcher": {
				"id": "byName",
				"options": "{statuscode=\"200\"} 200"
			  },
			  "properties": [
				{
				  "id": "color",
				  "value": {
					"fixedColor": "green",
					"mode": "fixed"
				  }
				}
			  ]
			},
			{
			  "matcher": {
				"id": "byName",
				"options": "{statuscode=\"404\"} 404"
			  },
			  "properties": [
				{
				  "id": "color",
				  "value": {
					"fixedColor": "semi-dark-purple",
					"mode": "fixed"
				  }
				}
			  ]
			},
			{
			  "matcher": {
				"id": "byName",
				"options": "{statuscode=\"500\"} 500"
			  },
			  "properties": [
				{
				  "id": "color",
				  "value": {
					"fixedColor": "dark-red",
					"mode": "fixed"
				  }
				}
			  ]
			},
			{
			  "matcher": {
				"id": "byName",
				"options": "HTTP Status 404"
			  },
			  "properties": [
				{
				  "id": "color",
				  "value": {
					"fixedColor": "light-orange",
					"mode": "fixed"
				  }
				}
			  ]
			},
			{
			  "matcher": {
				"id": "byName",
				"options": "HTTP Status 301"
			  },
			  "properties": [
				{
				  "id": "color",
				  "value": {
					"fixedColor": "light-blue",
					"mode": "fixed"
				  }
				}
			  ]
			},
			{
			  "matcher": {
				"id": "byName",
				"options": "HTTP Status 200"
			  },
			  "properties": [
				{
				  "id": "color",
				  "value": {
					"fixedColor": "semi-dark-blue",
					"mode": "fixed"
				  }
				}
			  ]
			}
		  ]
		},
		"gridPos": {
		  "h": 9,
		  "w": 8,
		  "x": 8,
		  "y": 21
		},
		"id": 2,
		"maxDataPoints": 50,
		"options": {
		  "legend": {
			"calcs": [],
			"displayMode": "list",
			"placement": "bottom"
		  },
		  "tooltip": {
			"mode": "single",
			"sort": "none"
		  }
		},
		"pluginVersion": "8.0.0-beta3",
		"targets": [
		  {
			"datasource": {
			  "uid": "$datasource"
			},
			"expr": "sum by (status) (count_over_time({$label_name=~\"$label_value\", job=~\"$job\", instance=~\"$instance\"} | json |  __error__=\"\" [$__interval]))",
			"legendFormat": "HTTP Status {{status}}",
			"refId": "A"
		  }
		],
		"title": "HTTP status codes over time",
		"transformations": [
		  {
			"id": "filterFieldsByName",
			"options": {
			  "include": {
				"names": [
				  "Time",
				  "HTTP Status 200",
				  "HTTP Status 301",
				  "HTTP Status 304",
				  "HTTP Status 404",
				  "HTTP Status 406",
				  "HTTP Status 500"
				]
			  }
			}
		  }
		],
		"type": "timeseries"
	  },
	  {
		"datasource": {
		  "uid": "$datasource"
		},
		"description": "",
		"fieldConfig": {
		  "defaults": {
			"color": {
			  "mode": "palette-classic"
			},
			"custom": {
			  "axisLabel": "",
			  "axisPlacement": "auto",
			  "barAlignment": 0,
			  "drawStyle": "line",
			  "fillOpacity": 100,
			  "gradientMode": "hue",
			  "hideFrom": {
				"graph": false,
				"legend": false,
				"tooltip": false,
				"viz": false
			  },
			  "lineInterpolation": "smooth",
			  "lineWidth": 1,
			  "pointSize": 5,
			  "scaleDistribution": {
				"type": "linear"
			  },
			  "showPoints": "never",
			  "spanNulls": false,
			  "stacking": {
				"group": "A",
				"mode": "none"
			  },
			  "thresholdsStyle": {
				"mode": "off"
			  }
			},
			"mappings": [],
			"thresholds": {
			  "mode": "absolute",
			  "steps": [
				{
				  "color": "green",
				  "value": null
				},
				{
				  "color": "red",
				  "value": 80
				}
			  ]
			},
			"unit": "decbytes"
		  },
		  "overrides": [
			{
			  "matcher": {
				"id": "byName",
				"options": "Bytes sent"
			  },
			  "properties": [
				{
				  "id": "color",
				  "value": {
					"fixedColor": "light-blue",
					"mode": "fixed"
				  }
				}
			  ]
			},
			{
			  "matcher": {
				"id": "byName",
				"options": "appfelstrudel"
			  },
			  "properties": [
				{
				  "id": "color",
				  "value": {
					"fixedColor": "yellow",
					"mode": "fixed"
				  }
				}
			  ]
			}
		  ]
		},
		"gridPos": {
		  "h": 9,
		  "w": 8,
		  "x": 16,
		  "y": 21
		},
		"id": 9,
		"maxDataPoints": 50,
		"options": {
		  "legend": {
			"calcs": [],
			"displayMode": "list",
			"placement": "bottom"
		  },
		  "tooltip": {
			"mode": "single",
			"sort": "none"
		  }
		},
		"pluginVersion": "8.0.0-beta3",
		"targets": [
		  {
			"datasource": {
			  "uid": "$datasource"
			},
			"expr": "sum by (host) (sum_over_time({$label_name=~\"$label_value\", job=~\"$job\", instance=~\"$instance\"} | json | status=200 | unwrap body_bytes_sent |  __error__=\"\" [$__interval]))",
			"legendFormat": "Bytes sent",
			"refId": "A"
		  }
		],
		"title": "Bytes Sent",
		"transformations": [],
		"type": "timeseries"
	  },
	  {
		"collapsed": false,
		"datasource": {
		  "uid": "$datasource"
		},
		"gridPos": {
		  "h": 1,
		  "w": 24,
		  "x": 0,
		  "y": 30
		},
		"id": 28,
		"panels": [],
		"targets": [
		  {
			"datasource": {
			  "uid": "$datasource"
			},
			"refId": "A"
		  }
		],
		"title": "Acquisition and Behaviour",
		"type": "row"
	  },
	  {
		"datasource": {
		  "uid": "$datasource"
		},
		"description": "",
		"fieldConfig": {
		  "defaults": {
			"color": {
			  "mode": "thresholds"
			},
			"custom": {
			  "displayMode": "auto",
			  "filterable": false
			},
			"mappings": [],
			"thresholds": {
			  "mode": "absolute",
			  "steps": [
				{
				  "color": "green"
				},
				{
				  "color": "red",
				  "value": 80
				}
			  ]
			}
		  },
		  "overrides": [
			{
			  "matcher": {
				"id": "byName",
				"options": "Requests"
			  },
			  "properties": [
				{
				  "id": "custom.displayMode",
				  "value": "gradient-gauge"
				},
				{
				  "id": "color",
				  "value": {
					"mode": "continuous-BlPu"
				  }
				}
			  ]
			},
			{
			  "matcher": {
				"id": "byName",
				"options": "Requests"
			  },
			  "properties": [
				{
				  "id": "custom.width",
				  "value": 300
				}
			  ]
			}
		  ]
		},
		"gridPos": {
		  "h": 6,
		  "w": 9,
		  "x": 0,
		  "y": 31
		},
		"id": 6,
		"maxDataPoints": 1,
		"options": {
		  "showHeader": true,
		  "sortBy": [
			{
			  "desc": true,
			  "displayName": "Requests"
			}
		  ]
		},
		"pluginVersion": "8.2.6",
		"targets": [
		  {
			"datasource": {
			  "uid": "$datasource"
			},
			"expr": "topk(10, sum by (http_referer) (count_over_time({$label_name=~\"$label_value\", job=~\"$job\", instance=~\"$instance\"} | json |  http_referer != \"\" and http_referer !~ \".*?$host.*?\" and http_referer !~ \".*?\\\\*\\\\*\\\\*.*?\" | __error__=\"\" [15m])))",
			"instant": true,
			"legendFormat": "{{http_referer}}",
			"range": false,
			"refId": "A"
		  }
		],
		"timeFrom": "15m",
		"title": "Top 10 HTTP Referers",
		"transformations": [
		  {
			"id": "organize",
			"options": {
			  "excludeByName": {
				"Time": true
			  },
			  "indexByName": {},
			  "renameByName": {
				"Field": "Referer",
				"Total": "Requests",
				"Value #A": "Requests",
				"http_referer": "HTTP Referrer"
			  }
			}
		  }
		],
		"type": "table"
	  },
	  {
		"datasource": {
		  "uid": "$datasource"
		},
		"description": "",
		"fieldConfig": {
		  "defaults": {
			"color": {
			  "mode": "thresholds"
			},
			"custom": {
			  "displayMode": "auto",
			  "filterable": false
			},
			"mappings": [],
			"thresholds": {
			  "mode": "absolute",
			  "steps": [
				{
				  "color": "green"
				},
				{
				  "color": "red",
				  "value": 80
				}
			  ]
			}
		  },
		  "overrides": [
			{
			  "matcher": {
				"id": "byName",
				"options": "Requests"
			  },
			  "properties": [
				{
				  "id": "custom.width",
				  "value": 300
				},
				{
				  "id": "custom.displayMode",
				  "value": "gradient-gauge"
				},
				{
				  "id": "color",
				  "value": {
					"mode": "continuous-BlPu"
				  }
				}
			  ]
			}
		  ]
		},
		"gridPos": {
		  "h": 6,
		  "w": 15,
		  "x": 9,
		  "y": 31
		},
		"id": 7,
		"maxDataPoints": 1,
		"options": {
		  "showHeader": true,
		  "sortBy": [
			{
			  "desc": true,
			  "displayName": "Requests"
			}
		  ]
		},
		"pluginVersion": "8.2.6",
		"targets": [
		  {
			"datasource": {
			  "uid": "$datasource"
			},
			"expr": "topk(10, sum by (http_user_agent) (count_over_time({$label_name=~\"$label_value\", job=~\"$job\", instance=~\"$instance\"} | json |  __error__=\"\" [15m])))",
			"instant": true,
			"legendFormat": "{{http_user_agent}}",
			"range": false,
			"refId": "A"
		  }
		],
		"timeFrom": "15m",
		"title": "Top 10 User Agents",
		"transformations": [
		  {
			"id": "organize",
			"options": {
			  "excludeByName": {
				"Field": false,
				"Time": true
			  },
			  "indexByName": {},
			  "renameByName": {
				"Field": "Agent",
				"Total": "Requests",
				"Value #A": "Requests",
				"http_user_agent": "User agent"
			  }
			}
		  }
		],
		"type": "table"
	  },
	  {
		"datasource": {
		  "uid": "$datasource"
		},
		"description": "",
		"fieldConfig": {
		  "defaults": {
			"color": {
			  "mode": "thresholds"
			},
			"custom": {
			  "displayMode": "auto",
			  "filterable": false
			},
			"mappings": [
			  {
				"options": {
				  "NL": {
					"index": 1,
					"text": "🇳🇱"
				  },
				  "US": {
					"index": 0,
					"text": "🇺🇸"
				  }
				},
				"type": "value"
			  }
			],
			"thresholds": {
			  "mode": "absolute",
			  "steps": [
				{
				  "color": "green"
				},
				{
				  "color": "red",
				  "value": 80
				}
			  ]
			}
		  },
		  "overrides": [
			{
			  "matcher": {
				"id": "byName",
				"options": "Requests"
			  },
			  "properties": [
				{
				  "id": "custom.width",
				  "value": 300
				},
				{
				  "id": "custom.displayMode",
				  "value": "gradient-gauge"
				},
				{
				  "id": "color",
				  "value": {
					"mode": "continuous-BlPu"
				  }
				}
			  ]
			},
			{
			  "matcher": {
				"id": "byName",
				"options": "Country"
			  },
			  "properties": [
				{
				  "id": "custom.width",
				  "value": 74
				}
			  ]
			}
		  ]
		},
		"gridPos": {
		  "h": 8,
		  "w": 9,
		  "x": 0,
		  "y": 37
		},
		"id": 3,
		"maxDataPoints": 1,
		"options": {
		  "showHeader": true,
		  "sortBy": [
			{
			  "desc": true,
			  "displayName": "Requests"
			}
		  ]
		},
		"pluginVersion": "8.2.6",
		"targets": [
		  {
			"datasource": {
			  "uid": "$datasource"
			},
			"expr": "topk(10, sum by (remote_addr, geoip_country_code) (count_over_time({$label_name=~\"$label_value\", job=~\"$job\", instance=~\"$instance\"} | json |  __error__=\"\" [15m])))",
			"instant": true,
			"legendFormat": "{{remote_addr}}",
			"range": false,
			"refId": "A"
		  }
		],
		"timeFrom": "15m",
		"title": "Top 10 visitor IPs",
		"transformations": [
		  {
			"id": "organize",
			"options": {
			  "excludeByName": {
				"Field": false,
				"Time": true
			  },
			  "indexByName": {
				"Time": 0,
				"Value #A": 3,
				"geoip_country_code": 2,
				"remote_addr": 1
			  },
			  "renameByName": {
				"Field": "IP Address",
				"Total": "Requests",
				"Value #A": "Requests",
				"geoip_country_code": "Country",
				"remote_addr": "IP Address "
			  }
			}
		  }
		],
		"type": "table"
	  },
	  {
		"datasource": {
		  "uid": "$datasource"
		},
		"description": "",
		"fieldConfig": {
		  "defaults": {
			"color": {
			  "mode": "thresholds"
			},
			"custom": {
			  "displayMode": "auto",
			  "filterable": false
			},
			"mappings": [],
			"thresholds": {
			  "mode": "absolute",
			  "steps": [
				{
				  "color": "green"
				},
				{
				  "color": "red",
				  "value": 80
				}
			  ]
			}
		  },
		  "overrides": [
			{
			  "matcher": {
				"id": "byName",
				"options": "Requests"
			  },
			  "properties": [
				{
				  "id": "custom.width",
				  "value": 300
				},
				{
				  "id": "custom.displayMode",
				  "value": "gradient-gauge"
				},
				{
				  "id": "color",
				  "value": {
					"mode": "continuous-BlPu"
				  }
				}
			  ]
			}
		  ]
		},
		"gridPos": {
		  "h": 8,
		  "w": 15,
		  "x": 9,
		  "y": 37
		},
		"id": 12,
		"maxDataPoints": 1,
		"options": {
		  "showHeader": true,
		  "sortBy": [
			{
			  "desc": true,
			  "displayName": "Requests"
			}
		  ]
		},
		"pluginVersion": "8.2.6",
		"targets": [
		  {
			"datasource": {
			  "uid": "$datasource"
			},
			"expr": "topk(10, sum by (request_uri) (count_over_time({$label_name=~\"$label_value\", job=~\"$job\", instance=~\"$instance\"} !~ `\\.ico|\\.svg|\\.css|\\.png|\\.txt|\\.js|\\.xml` | json | status = 200 and request_uri != \"/\" | __error__=\"\" [15m])))",
			"instant": true,
			"legendFormat": "{{request_uri}}",
			"range": false,
			"refId": "A"
		  }
		],
		"timeFrom": "15m",
		"title": "Top 10 Requested Pages",
		"transformations": [
		  {
			"id": "organize",
			"options": {
			  "excludeByName": {
				"Time": true
			  },
			  "indexByName": {},
			  "renameByName": {
				"Field": "Page",
				"Time": "",
				"Total": "",
				"Value #A": "Requests",
				"request_uri": "Path"
			  }
			}
		  }
		],
		"type": "table"
	  }
	],
	"refresh": false,
	"schemaVersion": 36,
	"style": "dark",
	"tags": [],
	"templating": {
	  "list": [
		{
		  "current": {
			"selected": false,
			"text": "Loki",
			"value": "Loki"
		  },
		  "hide": 0,
		  "includeAll": false,
		  "label": "Datasource",
		  "multi": false,
		  "name": "datasource",
		  "options": [],
		  "query": "loki",
		  "queryValue": "",
		  "refresh": 1,
		  "regex": "",
		  "skipUrlSync": false,
		  "type": "datasource"
		},
		{
		  "current": {
			"selected": false,
			"text": "hostname",
			"value": "hostname"
		  },
		  "datasource": {
			"type": "loki",
			"uid": "$datasource"
		  },
		  "definition": "label_names()",
		  "hide": 0,
		  "includeAll": false,
		  "label": "Label Name",
		  "multi": false,
		  "name": "label_name",
		  "options": [],
		  "query": "label_names()",
		  "refresh": 1,
		  "regex": "",
		  "skipUrlSync": false,
		  "sort": 1,
		  "tagValuesQuery": "",
		  "tagsQuery": "",
		  "type": "query",
		  "useTags": false
		},
		{
		  "current": {
			"selected": false,
			"text": "All",
			"value": "$__all"
		  },
		  "datasource": {
			"type": "loki",
			"uid": "$datasource"
		  },
		  "definition": "label_values($label_name)",
		  "hide": 0,
		  "includeAll": true,
		  "label": "Label Value",
		  "multi": true,
		  "name": "label_value",
		  "options": [],
		  "query": "label_values($label_name)",
		  "refresh": 1,
		  "regex": "",
		  "skipUrlSync": false,
		  "sort": 1,
		  "tagValuesQuery": "",
		  "tagsQuery": "",
		  "type": "query",
		  "useTags": false
		},
		{
		  "current": {
			"selected": false,
			"text": "All",
			"value": "$__all"
		  },
		  "datasource": {
			"type": "loki",
			"uid": "$datasource"
		  },
		  "definition": "label_values({$label_name=~\"$label_value\"}, job)",
		  "hide": 0,
		  "includeAll": true,
		  "label": "Job",
		  "multi": true,
		  "name": "job",
		  "options": [],
		  "query": "label_values({$label_name=~\"$label_value\"}, job)",
		  "refresh": 1,
		  "regex": "",
		  "skipUrlSync": false,
		  "sort": 0,
		  "tagValuesQuery": "",
		  "tagsQuery": "",
		  "type": "query",
		  "useTags": false
		},
		{
		  "current": {
			"selected": false,
			"text": "All",
			"value": "$__all"
		  },
		  "datasource": {
			"type": "loki",
			"uid": "$datasource"
		  },
		  "definition": "label_values({$label_name=~\"$label_value\"}, instance)",
		  "hide": 0,
		  "includeAll": true,
		  "label": "Instance",
		  "multi": true,
		  "name": "instance",
		  "options": [],
		  "query": "label_values({$label_name=~\"$label_value\"}, instance)",
		  "refresh": 1,
		  "regex": "",
		  "skipUrlSync": false,
		  "sort": 0,
		  "tagValuesQuery": "",
		  "tagsQuery": "",
		  "type": "query",
		  "useTags": false
		}
	  ]
	},
	"time": {
	  "from": "now-1h",
	  "to": "now"
	},
	"timepicker": {
	  "refresh_intervals": [
		"10s",
		"30s",
		"1m",
		"5m",
		"15m",
		"30m",
		"1h",
		"2h",
		"1d"
	  ]
	},
	"timezone": "",
	"title": "NGINX",
	"uid": "Nz6kKgtGj",
	"version": 3,
	"weekStart": ""
  }